EESchema Schematic File Version 4
EELAYER 30 0
EELAYER END
$Descr A4 11693 8268
encoding utf-8
Sheet 1 1
Title ""
Date ""
Rev ""
Comp ""
Comment1 ""
Comment2 ""
Comment3 ""
Comment4 ""
$EndDescr
$Comp
L LED:WS2813 D2
U 1 1 623FB36A
P 2100 950
F 0 "D2" H 2444 996 50  0000 L CNN
F 1 "WS2813" H 2444 905 50  0000 L CNN
F 2 "pcb_2:WS2813E" H 2150 650 50  0001 L TNN
F 3 "http://www.normandled.com/upload/201605/WS2813%20LED%20Datasheet.pdf" H 2200 575 50  0001 L TNN
	1    2100 950 
	1    0    0    -1  
$EndComp
$Comp
L LED:WS2813 D3
U 1 1 623FCA3C
P 3200 950
F 0 "D3" H 3544 996 50  0000 L CNN
F 1 "WS2813" H 3544 905 50  0000 L CNN
F 2 "pcb_2:WS2813E" H 3250 650 50  0001 L TNN
F 3 "http://www.normandled.com/upload/201605/WS2813%20LED%20Datasheet.pdf" H 3300 575 50  0001 L TNN
	1    3200 950 
	1    0    0    -1  
$EndComp
$Comp
L LED:WS2813 D4
U 1 1 623FCFB4
P 4250 950
F 0 "D4" H 4594 996 50  0000 L CNN
F 1 "WS2813" H 4594 905 50  0000 L CNN
F 2 "pcb_2:WS2813E" H 4300 650 50  0001 L TNN
F 3 "http://www.normandled.com/upload/201605/WS2813%20LED%20Datasheet.pdf" H 4350 575 50  0001 L TNN
	1    4250 950 
	1    0    0    -1  
$EndComp
$Comp
L power:GND #PWR0101
U 1 1 623FC883
P 900 1250
F 0 "#PWR0101" H 900 1000 50  0001 C CNN
F 1 "GND" H 905 1077 50  0000 C CNN
F 2 "" H 900 1250 50  0001 C CNN
F 3 "" H 900 1250 50  0001 C CNN
	1    900  1250
	1    0    0    -1  
$EndComp
$Comp
L LED:WS2813 D1
U 1 1 623F9A90
P 900 950
F 0 "D1" H 1244 996 50  0000 L CNN
F 1 "WS2813" H 1244 905 50  0000 L CNN
F 2 "pcb_2:WS2813E" H 950 650 50  0001 L TNN
F 3 "http://www.normandled.com/upload/201605/WS2813%20LED%20Datasheet.pdf" H 1000 575 50  0001 L TNN
	1    900  950 
	1    0    0    -1  
$EndComp
$Comp
L power:GND #PWR0102
U 1 1 623FD041
P 2100 1250
F 0 "#PWR0102" H 2100 1000 50  0001 C CNN
F 1 "GND" H 2105 1077 50  0000 C CNN
F 2 "" H 2100 1250 50  0001 C CNN
F 3 "" H 2100 1250 50  0001 C CNN
	1    2100 1250
	1    0    0    -1  
$EndComp
$Comp
L LED:WS2813 D5
U 1 1 6240C53D
P 5300 950
F 0 "D5" H 5644 996 50  0000 L CNN
F 1 "WS2813" H 5644 905 50  0000 L CNN
F 2 "pcb_2:WS2813E" H 5350 650 50  0001 L TNN
F 3 "http://www.normandled.com/upload/201605/WS2813%20LED%20Datasheet.pdf" H 5400 575 50  0001 L TNN
	1    5300 950 
	1    0    0    -1  
$EndComp
$Comp
L power:GND #PWR0103
U 1 1 6240CE74
P 3200 1250
F 0 "#PWR0103" H 3200 1000 50  0001 C CNN
F 1 "GND" H 3205 1077 50  0000 C CNN
F 2 "" H 3200 1250 50  0001 C CNN
F 3 "" H 3200 1250 50  0001 C CNN
	1    3200 1250
	1    0    0    -1  
$EndComp
$Comp
L power:GND #PWR0104
U 1 1 6240D3BE
P 4250 1250
F 0 "#PWR0104" H 4250 1000 50  0001 C CNN
F 1 "GND" H 4255 1077 50  0000 C CNN
F 2 "" H 4250 1250 50  0001 C CNN
F 3 "" H 4250 1250 50  0001 C CNN
	1    4250 1250
	1    0    0    -1  
$EndComp
$Comp
L power:GND #PWR0105
U 1 1 6240D6A6
P 5300 1250
F 0 "#PWR0105" H 5300 1000 50  0001 C CNN
F 1 "GND" H 5305 1077 50  0000 C CNN
F 2 "" H 5300 1250 50  0001 C CNN
F 3 "" H 5300 1250 50  0001 C CNN
	1    5300 1250
	1    0    0    -1  
$EndComp
$Comp
L LED:WS2813 D6
U 1 1 6240DBE9
P 6350 950
F 0 "D6" H 6694 996 50  0000 L CNN
F 1 "WS2813" H 6694 905 50  0000 L CNN
F 2 "pcb_2:WS2813E" H 6400 650 50  0001 L TNN
F 3 "http://www.normandled.com/upload/201605/WS2813%20LED%20Datasheet.pdf" H 6450 575 50  0001 L TNN
	1    6350 950 
	1    0    0    -1  
$EndComp
$Comp
L power:GND #PWR0106
U 1 1 6240E3DC
P 6350 1250
F 0 "#PWR0106" H 6350 1000 50  0001 C CNN
F 1 "GND" H 6355 1077 50  0000 C CNN
F 2 "" H 6350 1250 50  0001 C CNN
F 3 "" H 6350 1250 50  0001 C CNN
	1    6350 1250
	1    0    0    -1  
$EndComp
$Comp
L LED:WS2813 D7
U 1 1 62412390
P 7350 950
F 0 "D7" H 7694 996 50  0000 L CNN
F 1 "WS2813" H 7694 905 50  0000 L CNN
F 2 "pcb_2:WS2813E" H 7400 650 50  0001 L TNN
F 3 "http://www.normandled.com/upload/201605/WS2813%20LED%20Datasheet.pdf" H 7450 575 50  0001 L TNN
	1    7350 950 
	1    0    0    -1  
$EndComp
$Comp
L power:GND #PWR0107
U 1 1 62412B55
P 7350 1250
F 0 "#PWR0107" H 7350 1000 50  0001 C CNN
F 1 "GND" H 7355 1077 50  0000 C CNN
F 2 "" H 7350 1250 50  0001 C CNN
F 3 "" H 7350 1250 50  0001 C CNN
	1    7350 1250
	1    0    0    -1  
$EndComp
$Comp
L LED:WS2813 D8
U 1 1 62412F45
P 8400 950
F 0 "D8" H 8744 996 50  0000 L CNN
F 1 "WS2813" H 8744 905 50  0000 L CNN
F 2 "pcb_2:WS2813E" H 8450 650 50  0001 L TNN
F 3 "http://www.normandled.com/upload/201605/WS2813%20LED%20Datasheet.pdf" H 8500 575 50  0001 L TNN
	1    8400 950 
	1    0    0    -1  
$EndComp
$Comp
L power:GND #PWR0108
U 1 1 624133C2
P 8400 1250
F 0 "#PWR0108" H 8400 1000 50  0001 C CNN
F 1 "GND" H 8405 1077 50  0000 C CNN
F 2 "" H 8400 1250 50  0001 C CNN
F 3 "" H 8400 1250 50  0001 C CNN
	1    8400 1250
	1    0    0    -1  
$EndComp
$Comp
L LED:WS2813 D9
U 1 1 62413880
P 9450 950
F 0 "D9" H 9794 996 50  0000 L CNN
F 1 "WS2813" H 9794 905 50  0000 L CNN
F 2 "pcb_2:WS2813E" H 9500 650 50  0001 L TNN
F 3 "http://www.normandled.com/upload/201605/WS2813%20LED%20Datasheet.pdf" H 9550 575 50  0001 L TNN
	1    9450 950 
	1    0    0    -1  
$EndComp
$Comp
L power:GND #PWR0109
U 1 1 62413E57
P 9450 1250
F 0 "#PWR0109" H 9450 1000 50  0001 C CNN
F 1 "GND" H 9455 1077 50  0000 C CNN
F 2 "" H 9450 1250 50  0001 C CNN
F 3 "" H 9450 1250 50  0001 C CNN
	1    9450 1250
	1    0    0    -1  
$EndComp
$Comp
L LED:WS2813 D10
U 1 1 62552E76
P 10500 950
F 0 "D10" H 10844 996 50  0000 L CNN
F 1 "WS2813" H 10844 905 50  0000 L CNN
F 2 "pcb_2:WS2813E" H 10550 650 50  0001 L TNN
F 3 "http://www.normandled.com/upload/201605/WS2813%20LED%20Datasheet.pdf" H 10600 575 50  0001 L TNN
	1    10500 950 
	1    0    0    -1  
$EndComp
$Comp
L power:GND #PWR0110
U 1 1 62552E7C
P 10500 1250
F 0 "#PWR0110" H 10500 1000 50  0001 C CNN
F 1 "GND" H 10505 1077 50  0000 C CNN
F 2 "" H 10500 1250 50  0001 C CNN
F 3 "" H 10500 1250 50  0001 C CNN
	1    10500 1250
	1    0    0    -1  
$EndComp
$Comp
L LED:WS2813 D12
U 1 1 6255AADC
P 2100 1950
F 0 "D12" H 2444 1996 50  0000 L CNN
F 1 "WS2813" H 2444 1905 50  0000 L CNN
F 2 "pcb_2:WS2813E" H 2150 1650 50  0001 L TNN
F 3 "http://www.normandled.com/upload/201605/WS2813%20LED%20Datasheet.pdf" H 2200 1575 50  0001 L TNN
	1    2100 1950
	1    0    0    -1  
$EndComp
$Comp
L LED:WS2813 D13
U 1 1 6255AAE2
P 3200 1950
F 0 "D13" H 3544 1996 50  0000 L CNN
F 1 "WS2813" H 3544 1905 50  0000 L CNN
F 2 "pcb_2:WS2813E" H 3250 1650 50  0001 L TNN
F 3 "http://www.normandled.com/upload/201605/WS2813%20LED%20Datasheet.pdf" H 3300 1575 50  0001 L TNN
	1    3200 1950
	1    0    0    -1  
$EndComp
$Comp
L LED:WS2813 D14
U 1 1 6255AAE8
P 4250 1950
F 0 "D14" H 4594 1996 50  0000 L CNN
F 1 "WS2813" H 4594 1905 50  0000 L CNN
F 2 "pcb_2:WS2813E" H 4300 1650 50  0001 L TNN
F 3 "http://www.normandled.com/upload/201605/WS2813%20LED%20Datasheet.pdf" H 4350 1575 50  0001 L TNN
	1    4250 1950
	1    0    0    -1  
$EndComp
$Comp
L power:GND #PWR0111
U 1 1 6255AAEE
P 900 2250
F 0 "#PWR0111" H 900 2000 50  0001 C CNN
F 1 "GND" H 905 2077 50  0000 C CNN
F 2 "" H 900 2250 50  0001 C CNN
F 3 "" H 900 2250 50  0001 C CNN
	1    900  2250
	1    0    0    -1  
$EndComp
$Comp
L LED:WS2813 D11
U 1 1 6255AAF4
P 900 1950
F 0 "D11" H 1244 1996 50  0000 L CNN
F 1 "WS2813" H 1244 1905 50  0000 L CNN
F 2 "pcb_2:WS2813E" H 950 1650 50  0001 L TNN
F 3 "http://www.normandled.com/upload/201605/WS2813%20LED%20Datasheet.pdf" H 1000 1575 50  0001 L TNN
	1    900  1950
	1    0    0    -1  
$EndComp
$Comp
L power:GND #PWR0112
U 1 1 6255AAFA
P 2100 2250
F 0 "#PWR0112" H 2100 2000 50  0001 C CNN
F 1 "GND" H 2105 2077 50  0000 C CNN
F 2 "" H 2100 2250 50  0001 C CNN
F 3 "" H 2100 2250 50  0001 C CNN
	1    2100 2250
	1    0    0    -1  
$EndComp
$Comp
L LED:WS2813 D15
U 1 1 6255AB00
P 5300 1950
F 0 "D15" H 5644 1996 50  0000 L CNN
F 1 "WS2813" H 5644 1905 50  0000 L CNN
F 2 "pcb_2:WS2813E" H 5350 1650 50  0001 L TNN
F 3 "http://www.normandled.com/upload/201605/WS2813%20LED%20Datasheet.pdf" H 5400 1575 50  0001 L TNN
	1    5300 1950
	1    0    0    -1  
$EndComp
$Comp
L power:GND #PWR0113
U 1 1 6255AB06
P 3200 2250
F 0 "#PWR0113" H 3200 2000 50  0001 C CNN
F 1 "GND" H 3205 2077 50  0000 C CNN
F 2 "" H 3200 2250 50  0001 C CNN
F 3 "" H 3200 2250 50  0001 C CNN
	1    3200 2250
	1    0    0    -1  
$EndComp
$Comp
L power:GND #PWR0114
U 1 1 6255AB0C
P 4250 2250
F 0 "#PWR0114" H 4250 2000 50  0001 C CNN
F 1 "GND" H 4255 2077 50  0000 C CNN
F 2 "" H 4250 2250 50  0001 C CNN
F 3 "" H 4250 2250 50  0001 C CNN
	1    4250 2250
	1    0    0    -1  
$EndComp
$Comp
L power:GND #PWR0115
U 1 1 6255AB12
P 5300 2250
F 0 "#PWR0115" H 5300 2000 50  0001 C CNN
F 1 "GND" H 5305 2077 50  0000 C CNN
F 2 "" H 5300 2250 50  0001 C CNN
F 3 "" H 5300 2250 50  0001 C CNN
	1    5300 2250
	1    0    0    -1  
$EndComp
$Comp
L LED:WS2813 D16
U 1 1 6255AB18
P 6350 1950
F 0 "D16" H 6694 1996 50  0000 L CNN
F 1 "WS2813" H 6694 1905 50  0000 L CNN
F 2 "pcb_2:WS2813E" H 6400 1650 50  0001 L TNN
F 3 "http://www.normandled.com/upload/201605/WS2813%20LED%20Datasheet.pdf" H 6450 1575 50  0001 L TNN
	1    6350 1950
	1    0    0    -1  
$EndComp
$Comp
L power:GND #PWR0116
U 1 1 6255AB1E
P 6350 2250
F 0 "#PWR0116" H 6350 2000 50  0001 C CNN
F 1 "GND" H 6355 2077 50  0000 C CNN
F 2 "" H 6350 2250 50  0001 C CNN
F 3 "" H 6350 2250 50  0001 C CNN
	1    6350 2250
	1    0    0    -1  
$EndComp
$Comp
L LED:WS2813 D17
U 1 1 6255AB24
P 7350 1950
F 0 "D17" H 7694 1996 50  0000 L CNN
F 1 "WS2813" H 7694 1905 50  0000 L CNN
F 2 "pcb_2:WS2813E" H 7400 1650 50  0001 L TNN
F 3 "http://www.normandled.com/upload/201605/WS2813%20LED%20Datasheet.pdf" H 7450 1575 50  0001 L TNN
	1    7350 1950
	1    0    0    -1  
$EndComp
$Comp
L power:GND #PWR0117
U 1 1 6255AB2A
P 7350 2250
F 0 "#PWR0117" H 7350 2000 50  0001 C CNN
F 1 "GND" H 7355 2077 50  0000 C CNN
F 2 "" H 7350 2250 50  0001 C CNN
F 3 "" H 7350 2250 50  0001 C CNN
	1    7350 2250
	1    0    0    -1  
$EndComp
$Comp
L LED:WS2813 D18
U 1 1 6255AB30
P 8400 1950
F 0 "D18" H 8744 1996 50  0000 L CNN
F 1 "WS2813" H 8744 1905 50  0000 L CNN
F 2 "pcb_2:WS2813E" H 8450 1650 50  0001 L TNN
F 3 "http://www.normandled.com/upload/201605/WS2813%20LED%20Datasheet.pdf" H 8500 1575 50  0001 L TNN
	1    8400 1950
	1    0    0    -1  
$EndComp
$Comp
L power:GND #PWR0118
U 1 1 6255AB36
P 8400 2250
F 0 "#PWR0118" H 8400 2000 50  0001 C CNN
F 1 "GND" H 8405 2077 50  0000 C CNN
F 2 "" H 8400 2250 50  0001 C CNN
F 3 "" H 8400 2250 50  0001 C CNN
	1    8400 2250
	1    0    0    -1  
$EndComp
$Comp
L LED:WS2813 D19
U 1 1 6255AB3C
P 9450 1950
F 0 "D19" H 9794 1996 50  0000 L CNN
F 1 "WS2813" H 9794 1905 50  0000 L CNN
F 2 "pcb_2:WS2813E" H 9500 1650 50  0001 L TNN
F 3 "http://www.normandled.com/upload/201605/WS2813%20LED%20Datasheet.pdf" H 9550 1575 50  0001 L TNN
	1    9450 1950
	1    0    0    -1  
$EndComp
$Comp
L power:GND #PWR0119
U 1 1 6255AB42
P 9450 2250
F 0 "#PWR0119" H 9450 2000 50  0001 C CNN
F 1 "GND" H 9455 2077 50  0000 C CNN
F 2 "" H 9450 2250 50  0001 C CNN
F 3 "" H 9450 2250 50  0001 C CNN
	1    9450 2250
	1    0    0    -1  
$EndComp
$Comp
L LED:WS2813 D20
U 1 1 6255AB48
P 10500 1950
F 0 "D20" H 10844 1996 50  0000 L CNN
F 1 "WS2813" H 10844 1905 50  0000 L CNN
F 2 "pcb_2:WS2813E" H 10550 1650 50  0001 L TNN
F 3 "http://www.normandled.com/upload/201605/WS2813%20LED%20Datasheet.pdf" H 10600 1575 50  0001 L TNN
	1    10500 1950
	1    0    0    -1  
$EndComp
$Comp
L power:GND #PWR0120
U 1 1 6255AB4E
P 10500 2250
F 0 "#PWR0120" H 10500 2000 50  0001 C CNN
F 1 "GND" H 10505 2077 50  0000 C CNN
F 2 "" H 10500 2250 50  0001 C CNN
F 3 "" H 10500 2250 50  0001 C CNN
	1    10500 2250
	1    0    0    -1  
$EndComp
$Comp
L LED:WS2813 D22
U 1 1 6255EAD8
P 2100 2900
F 0 "D22" H 2444 2946 50  0000 L CNN
F 1 "WS2813" H 2444 2855 50  0000 L CNN
F 2 "pcb_2:WS2813E" H 2150 2600 50  0001 L TNN
F 3 "http://www.normandled.com/upload/201605/WS2813%20LED%20Datasheet.pdf" H 2200 2525 50  0001 L TNN
	1    2100 2900
	1    0    0    -1  
$EndComp
$Comp
L LED:WS2813 D23
U 1 1 6255EADE
P 3200 2900
F 0 "D23" H 3544 2946 50  0000 L CNN
F 1 "WS2813" H 3544 2855 50  0000 L CNN
F 2 "pcb_2:WS2813E" H 3250 2600 50  0001 L TNN
F 3 "http://www.normandled.com/upload/201605/WS2813%20LED%20Datasheet.pdf" H 3300 2525 50  0001 L TNN
	1    3200 2900
	1    0    0    -1  
$EndComp
$Comp
L LED:WS2813 D24
U 1 1 6255EAE4
P 4250 2900
F 0 "D24" H 4594 2946 50  0000 L CNN
F 1 "WS2813" H 4594 2855 50  0000 L CNN
F 2 "pcb_2:WS2813E" H 4300 2600 50  0001 L TNN
F 3 "http://www.normandled.com/upload/201605/WS2813%20LED%20Datasheet.pdf" H 4350 2525 50  0001 L TNN
	1    4250 2900
	1    0    0    -1  
$EndComp
$Comp
L power:GND #PWR0121
U 1 1 6255EAEA
P 900 3200
F 0 "#PWR0121" H 900 2950 50  0001 C CNN
F 1 "GND" H 905 3027 50  0000 C CNN
F 2 "" H 900 3200 50  0001 C CNN
F 3 "" H 900 3200 50  0001 C CNN
	1    900  3200
	1    0    0    -1  
$EndComp
$Comp
L LED:WS2813 D21
U 1 1 6255EAF0
P 900 2900
F 0 "D21" H 1244 2946 50  0000 L CNN
F 1 "WS2813" H 1244 2855 50  0000 L CNN
F 2 "pcb_2:WS2813E" H 950 2600 50  0001 L TNN
F 3 "http://www.normandled.com/upload/201605/WS2813%20LED%20Datasheet.pdf" H 1000 2525 50  0001 L TNN
	1    900  2900
	1    0    0    -1  
$EndComp
$Comp
L power:GND #PWR0122
U 1 1 6255EAF6
P 2100 3200
F 0 "#PWR0122" H 2100 2950 50  0001 C CNN
F 1 "GND" H 2105 3027 50  0000 C CNN
F 2 "" H 2100 3200 50  0001 C CNN
F 3 "" H 2100 3200 50  0001 C CNN
	1    2100 3200
	1    0    0    -1  
$EndComp
$Comp
L LED:WS2813 D25
U 1 1 6255EAFC
P 5300 2900
F 0 "D25" H 5644 2946 50  0000 L CNN
F 1 "WS2813" H 5644 2855 50  0000 L CNN
F 2 "pcb_2:WS2813E" H 5350 2600 50  0001 L TNN
F 3 "http://www.normandled.com/upload/201605/WS2813%20LED%20Datasheet.pdf" H 5400 2525 50  0001 L TNN
	1    5300 2900
	1    0    0    -1  
$EndComp
$Comp
L power:GND #PWR0123
U 1 1 6255EB02
P 3200 3200
F 0 "#PWR0123" H 3200 2950 50  0001 C CNN
F 1 "GND" H 3205 3027 50  0000 C CNN
F 2 "" H 3200 3200 50  0001 C CNN
F 3 "" H 3200 3200 50  0001 C CNN
	1    3200 3200
	1    0    0    -1  
$EndComp
$Comp
L power:GND #PWR0124
U 1 1 6255EB08
P 4250 3200
F 0 "#PWR0124" H 4250 2950 50  0001 C CNN
F 1 "GND" H 4255 3027 50  0000 C CNN
F 2 "" H 4250 3200 50  0001 C CNN
F 3 "" H 4250 3200 50  0001 C CNN
	1    4250 3200
	1    0    0    -1  
$EndComp
$Comp
L power:GND #PWR0125
U 1 1 6255EB0E
P 5300 3200
F 0 "#PWR0125" H 5300 2950 50  0001 C CNN
F 1 "GND" H 5305 3027 50  0000 C CNN
F 2 "" H 5300 3200 50  0001 C CNN
F 3 "" H 5300 3200 50  0001 C CNN
	1    5300 3200
	1    0    0    -1  
$EndComp
$Comp
L LED:WS2813 D26
U 1 1 6255EB14
P 6350 2900
F 0 "D26" H 6694 2946 50  0000 L CNN
F 1 "WS2813" H 6694 2855 50  0000 L CNN
F 2 "pcb_2:WS2813E" H 6400 2600 50  0001 L TNN
F 3 "http://www.normandled.com/upload/201605/WS2813%20LED%20Datasheet.pdf" H 6450 2525 50  0001 L TNN
	1    6350 2900
	1    0    0    -1  
$EndComp
$Comp
L power:GND #PWR0126
U 1 1 6255EB1A
P 6350 3200
F 0 "#PWR0126" H 6350 2950 50  0001 C CNN
F 1 "GND" H 6355 3027 50  0000 C CNN
F 2 "" H 6350 3200 50  0001 C CNN
F 3 "" H 6350 3200 50  0001 C CNN
	1    6350 3200
	1    0    0    -1  
$EndComp
$Comp
L LED:WS2813 D27
U 1 1 6255EB20
P 7350 2900
F 0 "D27" H 7694 2946 50  0000 L CNN
F 1 "WS2813" H 7694 2855 50  0000 L CNN
F 2 "pcb_2:WS2813E" H 7400 2600 50  0001 L TNN
F 3 "http://www.normandled.com/upload/201605/WS2813%20LED%20Datasheet.pdf" H 7450 2525 50  0001 L TNN
	1    7350 2900
	1    0    0    -1  
$EndComp
$Comp
L power:GND #PWR0127
U 1 1 6255EB26
P 7350 3200
F 0 "#PWR0127" H 7350 2950 50  0001 C CNN
F 1 "GND" H 7355 3027 50  0000 C CNN
F 2 "" H 7350 3200 50  0001 C CNN
F 3 "" H 7350 3200 50  0001 C CNN
	1    7350 3200
	1    0    0    -1  
$EndComp
$Comp
L LED:WS2813 D28
U 1 1 6255EB2C
P 8400 2900
F 0 "D28" H 8744 2946 50  0000 L CNN
F 1 "WS2813" H 8744 2855 50  0000 L CNN
F 2 "pcb_2:WS2813E" H 8450 2600 50  0001 L TNN
F 3 "http://www.normandled.com/upload/201605/WS2813%20LED%20Datasheet.pdf" H 8500 2525 50  0001 L TNN
	1    8400 2900
	1    0    0    -1  
$EndComp
$Comp
L power:GND #PWR0128
U 1 1 6255EB32
P 8400 3200
F 0 "#PWR0128" H 8400 2950 50  0001 C CNN
F 1 "GND" H 8405 3027 50  0000 C CNN
F 2 "" H 8400 3200 50  0001 C CNN
F 3 "" H 8400 3200 50  0001 C CNN
	1    8400 3200
	1    0    0    -1  
$EndComp
$Comp
L LED:WS2813 D29
U 1 1 6255EB38
P 9450 2900
F 0 "D29" H 9794 2946 50  0000 L CNN
F 1 "WS2813" H 9794 2855 50  0000 L CNN
F 2 "pcb_2:WS2813E" H 9500 2600 50  0001 L TNN
F 3 "http://www.normandled.com/upload/201605/WS2813%20LED%20Datasheet.pdf" H 9550 2525 50  0001 L TNN
	1    9450 2900
	1    0    0    -1  
$EndComp
$Comp
L power:GND #PWR0129
U 1 1 6255EB3E
P 9450 3200
F 0 "#PWR0129" H 9450 2950 50  0001 C CNN
F 1 "GND" H 9455 3027 50  0000 C CNN
F 2 "" H 9450 3200 50  0001 C CNN
F 3 "" H 9450 3200 50  0001 C CNN
	1    9450 3200
	1    0    0    -1  
$EndComp
$Comp
L LED:WS2813 D30
U 1 1 6255EB44
P 10500 2900
F 0 "D30" H 10844 2946 50  0000 L CNN
F 1 "WS2813" H 10844 2855 50  0000 L CNN
F 2 "pcb_2:WS2813E" H 10550 2600 50  0001 L TNN
F 3 "http://www.normandled.com/upload/201605/WS2813%20LED%20Datasheet.pdf" H 10600 2525 50  0001 L TNN
	1    10500 2900
	1    0    0    -1  
$EndComp
$Comp
L power:GND #PWR0130
U 1 1 6255EB4A
P 10500 3200
F 0 "#PWR0130" H 10500 2950 50  0001 C CNN
F 1 "GND" H 10505 3027 50  0000 C CNN
F 2 "" H 10500 3200 50  0001 C CNN
F 3 "" H 10500 3200 50  0001 C CNN
	1    10500 3200
	1    0    0    -1  
$EndComp
$Comp
L LED:WS2813 D32
U 1 1 62560F10
P 2100 3900
F 0 "D32" H 2444 3946 50  0000 L CNN
F 1 "WS2813" H 2444 3855 50  0000 L CNN
F 2 "pcb_2:WS2813E" H 2150 3600 50  0001 L TNN
F 3 "http://www.normandled.com/upload/201605/WS2813%20LED%20Datasheet.pdf" H 2200 3525 50  0001 L TNN
	1    2100 3900
	1    0    0    -1  
$EndComp
$Comp
L LED:WS2813 D33
U 1 1 62560F16
P 3200 3900
F 0 "D33" H 3544 3946 50  0000 L CNN
F 1 "WS2813" H 3544 3855 50  0000 L CNN
F 2 "pcb_2:WS2813E" H 3250 3600 50  0001 L TNN
F 3 "http://www.normandled.com/upload/201605/WS2813%20LED%20Datasheet.pdf" H 3300 3525 50  0001 L TNN
	1    3200 3900
	1    0    0    -1  
$EndComp
$Comp
L LED:WS2813 D34
U 1 1 62560F1C
P 4250 3900
F 0 "D34" H 4594 3946 50  0000 L CNN
F 1 "WS2813" H 4594 3855 50  0000 L CNN
F 2 "pcb_2:WS2813E" H 4300 3600 50  0001 L TNN
F 3 "http://www.normandled.com/upload/201605/WS2813%20LED%20Datasheet.pdf" H 4350 3525 50  0001 L TNN
	1    4250 3900
	1    0    0    -1  
$EndComp
$Comp
L power:GND #PWR0131
U 1 1 62560F22
P 900 4200
F 0 "#PWR0131" H 900 3950 50  0001 C CNN
F 1 "GND" H 905 4027 50  0000 C CNN
F 2 "" H 900 4200 50  0001 C CNN
F 3 "" H 900 4200 50  0001 C CNN
	1    900  4200
	1    0    0    -1  
$EndComp
$Comp
L LED:WS2813 D31
U 1 1 62560F28
P 900 3900
F 0 "D31" H 1244 3946 50  0000 L CNN
F 1 "WS2813" H 1244 3855 50  0000 L CNN
F 2 "pcb_2:WS2813E" H 950 3600 50  0001 L TNN
F 3 "http://www.normandled.com/upload/201605/WS2813%20LED%20Datasheet.pdf" H 1000 3525 50  0001 L TNN
	1    900  3900
	1    0    0    -1  
$EndComp
$Comp
L power:GND #PWR0132
U 1 1 62560F2E
P 2100 4200
F 0 "#PWR0132" H 2100 3950 50  0001 C CNN
F 1 "GND" H 2105 4027 50  0000 C CNN
F 2 "" H 2100 4200 50  0001 C CNN
F 3 "" H 2100 4200 50  0001 C CNN
	1    2100 4200
	1    0    0    -1  
$EndComp
$Comp
L LED:WS2813 D35
U 1 1 62560F34
P 5300 3900
F 0 "D35" H 5644 3946 50  0000 L CNN
F 1 "WS2813" H 5644 3855 50  0000 L CNN
F 2 "pcb_2:WS2813E" H 5350 3600 50  0001 L TNN
F 3 "http://www.normandled.com/upload/201605/WS2813%20LED%20Datasheet.pdf" H 5400 3525 50  0001 L TNN
	1    5300 3900
	1    0    0    -1  
$EndComp
$Comp
L power:GND #PWR0133
U 1 1 62560F3A
P 3200 4200
F 0 "#PWR0133" H 3200 3950 50  0001 C CNN
F 1 "GND" H 3205 4027 50  0000 C CNN
F 2 "" H 3200 4200 50  0001 C CNN
F 3 "" H 3200 4200 50  0001 C CNN
	1    3200 4200
	1    0    0    -1  
$EndComp
$Comp
L power:GND #PWR0134
U 1 1 62560F40
P 4250 4200
F 0 "#PWR0134" H 4250 3950 50  0001 C CNN
F 1 "GND" H 4255 4027 50  0000 C CNN
F 2 "" H 4250 4200 50  0001 C CNN
F 3 "" H 4250 4200 50  0001 C CNN
	1    4250 4200
	1    0    0    -1  
$EndComp
$Comp
L power:GND #PWR0135
U 1 1 62560F46
P 5300 4200
F 0 "#PWR0135" H 5300 3950 50  0001 C CNN
F 1 "GND" H 5305 4027 50  0000 C CNN
F 2 "" H 5300 4200 50  0001 C CNN
F 3 "" H 5300 4200 50  0001 C CNN
	1    5300 4200
	1    0    0    -1  
$EndComp
$Comp
L LED:WS2813 D36
U 1 1 62560F4C
P 6350 3900
F 0 "D36" H 6694 3946 50  0000 L CNN
F 1 "WS2813" H 6694 3855 50  0000 L CNN
F 2 "pcb_2:WS2813E" H 6400 3600 50  0001 L TNN
F 3 "http://www.normandled.com/upload/201605/WS2813%20LED%20Datasheet.pdf" H 6450 3525 50  0001 L TNN
	1    6350 3900
	1    0    0    -1  
$EndComp
$Comp
L power:GND #PWR0136
U 1 1 62560F52
P 6350 4200
F 0 "#PWR0136" H 6350 3950 50  0001 C CNN
F 1 "GND" H 6355 4027 50  0000 C CNN
F 2 "" H 6350 4200 50  0001 C CNN
F 3 "" H 6350 4200 50  0001 C CNN
	1    6350 4200
	1    0    0    -1  
$EndComp
$Comp
L LED:WS2813 D37
U 1 1 62560F58
P 7350 3900
F 0 "D37" H 7694 3946 50  0000 L CNN
F 1 "WS2813" H 7694 3855 50  0000 L CNN
F 2 "pcb_2:WS2813E" H 7400 3600 50  0001 L TNN
F 3 "http://www.normandled.com/upload/201605/WS2813%20LED%20Datasheet.pdf" H 7450 3525 50  0001 L TNN
	1    7350 3900
	1    0    0    -1  
$EndComp
$Comp
L power:GND #PWR0137
U 1 1 62560F5E
P 7350 4200
F 0 "#PWR0137" H 7350 3950 50  0001 C CNN
F 1 "GND" H 7355 4027 50  0000 C CNN
F 2 "" H 7350 4200 50  0001 C CNN
F 3 "" H 7350 4200 50  0001 C CNN
	1    7350 4200
	1    0    0    -1  
$EndComp
$Comp
L LED:WS2813 D38
U 1 1 62560F64
P 8400 3900
F 0 "D38" H 8744 3946 50  0000 L CNN
F 1 "WS2813" H 8744 3855 50  0000 L CNN
F 2 "pcb_2:WS2813E" H 8450 3600 50  0001 L TNN
F 3 "http://www.normandled.com/upload/201605/WS2813%20LED%20Datasheet.pdf" H 8500 3525 50  0001 L TNN
	1    8400 3900
	1    0    0    -1  
$EndComp
$Comp
L power:GND #PWR0138
U 1 1 62560F6A
P 8400 4200
F 0 "#PWR0138" H 8400 3950 50  0001 C CNN
F 1 "GND" H 8405 4027 50  0000 C CNN
F 2 "" H 8400 4200 50  0001 C CNN
F 3 "" H 8400 4200 50  0001 C CNN
	1    8400 4200
	1    0    0    -1  
$EndComp
$Comp
L LED:WS2813 D39
U 1 1 62560F70
P 9450 3900
F 0 "D39" H 9794 3946 50  0000 L CNN
F 1 "WS2813" H 9794 3855 50  0000 L CNN
F 2 "pcb_2:WS2813E" H 9500 3600 50  0001 L TNN
F 3 "http://www.normandled.com/upload/201605/WS2813%20LED%20Datasheet.pdf" H 9550 3525 50  0001 L TNN
	1    9450 3900
	1    0    0    -1  
$EndComp
$Comp
L power:GND #PWR0139
U 1 1 62560F76
P 9450 4200
F 0 "#PWR0139" H 9450 3950 50  0001 C CNN
F 1 "GND" H 9455 4027 50  0000 C CNN
F 2 "" H 9450 4200 50  0001 C CNN
F 3 "" H 9450 4200 50  0001 C CNN
	1    9450 4200
	1    0    0    -1  
$EndComp
$Comp
L LED:WS2813 D40
U 1 1 62560F7C
P 10500 3900
F 0 "D40" H 10844 3946 50  0000 L CNN
F 1 "WS2813" H 10844 3855 50  0000 L CNN
F 2 "pcb_2:WS2813E" H 10550 3600 50  0001 L TNN
F 3 "http://www.normandled.com/upload/201605/WS2813%20LED%20Datasheet.pdf" H 10600 3525 50  0001 L TNN
	1    10500 3900
	1    0    0    -1  
$EndComp
$Comp
L power:GND #PWR0140
U 1 1 62560F82
P 10500 4200
F 0 "#PWR0140" H 10500 3950 50  0001 C CNN
F 1 "GND" H 10505 4027 50  0000 C CNN
F 2 "" H 10500 4200 50  0001 C CNN
F 3 "" H 10500 4200 50  0001 C CNN
	1    10500 4200
	1    0    0    -1  
$EndComp
$Comp
L LED:WS2813 D42
U 1 1 62564F54
P 2100 4900
F 0 "D42" H 2444 4946 50  0000 L CNN
F 1 "WS2813" H 2444 4855 50  0000 L CNN
F 2 "pcb_2:WS2813E" H 2150 4600 50  0001 L TNN
F 3 "http://www.normandled.com/upload/201605/WS2813%20LED%20Datasheet.pdf" H 2200 4525 50  0001 L TNN
	1    2100 4900
	1    0    0    -1  
$EndComp
$Comp
L LED:WS2813 D43
U 1 1 62564F5A
P 3200 4900
F 0 "D43" H 3544 4946 50  0000 L CNN
F 1 "WS2813" H 3544 4855 50  0000 L CNN
F 2 "pcb_2:WS2813E" H 3250 4600 50  0001 L TNN
F 3 "http://www.normandled.com/upload/201605/WS2813%20LED%20Datasheet.pdf" H 3300 4525 50  0001 L TNN
	1    3200 4900
	1    0    0    -1  
$EndComp
$Comp
L LED:WS2813 D44
U 1 1 62564F60
P 4250 4900
F 0 "D44" H 4594 4946 50  0000 L CNN
F 1 "WS2813" H 4594 4855 50  0000 L CNN
F 2 "pcb_2:WS2813E" H 4300 4600 50  0001 L TNN
F 3 "http://www.normandled.com/upload/201605/WS2813%20LED%20Datasheet.pdf" H 4350 4525 50  0001 L TNN
	1    4250 4900
	1    0    0    -1  
$EndComp
$Comp
L power:GND #PWR0141
U 1 1 62564F66
P 900 5200
F 0 "#PWR0141" H 900 4950 50  0001 C CNN
F 1 "GND" H 905 5027 50  0000 C CNN
F 2 "" H 900 5200 50  0001 C CNN
F 3 "" H 900 5200 50  0001 C CNN
	1    900  5200
	1    0    0    -1  
$EndComp
$Comp
L LED:WS2813 D41
U 1 1 62564F6C
P 900 4900
F 0 "D41" H 1244 4946 50  0000 L CNN
F 1 "WS2813" H 1244 4855 50  0000 L CNN
F 2 "pcb_2:WS2813E" H 950 4600 50  0001 L TNN
F 3 "http://www.normandled.com/upload/201605/WS2813%20LED%20Datasheet.pdf" H 1000 4525 50  0001 L TNN
	1    900  4900
	1    0    0    -1  
$EndComp
$Comp
L power:GND #PWR0142
U 1 1 62564F72
P 2100 5200
F 0 "#PWR0142" H 2100 4950 50  0001 C CNN
F 1 "GND" H 2105 5027 50  0000 C CNN
F 2 "" H 2100 5200 50  0001 C CNN
F 3 "" H 2100 5200 50  0001 C CNN
	1    2100 5200
	1    0    0    -1  
$EndComp
$Comp
L LED:WS2813 D45
U 1 1 62564F78
P 5300 4900
F 0 "D45" H 5644 4946 50  0000 L CNN
F 1 "WS2813" H 5644 4855 50  0000 L CNN
F 2 "pcb_2:WS2813E" H 5350 4600 50  0001 L TNN
F 3 "http://www.normandled.com/upload/201605/WS2813%20LED%20Datasheet.pdf" H 5400 4525 50  0001 L TNN
	1    5300 4900
	1    0    0    -1  
$EndComp
$Comp
L power:GND #PWR0143
U 1 1 62564F7E
P 3200 5200
F 0 "#PWR0143" H 3200 4950 50  0001 C CNN
F 1 "GND" H 3205 5027 50  0000 C CNN
F 2 "" H 3200 5200 50  0001 C CNN
F 3 "" H 3200 5200 50  0001 C CNN
	1    3200 5200
	1    0    0    -1  
$EndComp
$Comp
L power:GND #PWR0144
U 1 1 62564F84
P 4250 5200
F 0 "#PWR0144" H 4250 4950 50  0001 C CNN
F 1 "GND" H 4255 5027 50  0000 C CNN
F 2 "" H 4250 5200 50  0001 C CNN
F 3 "" H 4250 5200 50  0001 C CNN
	1    4250 5200
	1    0    0    -1  
$EndComp
$Comp
L power:GND #PWR0145
U 1 1 62564F8A
P 5300 5200
F 0 "#PWR0145" H 5300 4950 50  0001 C CNN
F 1 "GND" H 5305 5027 50  0000 C CNN
F 2 "" H 5300 5200 50  0001 C CNN
F 3 "" H 5300 5200 50  0001 C CNN
	1    5300 5200
	1    0    0    -1  
$EndComp
$Comp
L LED:WS2813 D46
U 1 1 62564F90
P 6350 4900
F 0 "D46" H 6694 4946 50  0000 L CNN
F 1 "WS2813" H 6694 4855 50  0000 L CNN
F 2 "pcb_2:WS2813E" H 6400 4600 50  0001 L TNN
F 3 "http://www.normandled.com/upload/201605/WS2813%20LED%20Datasheet.pdf" H 6450 4525 50  0001 L TNN
	1    6350 4900
	1    0    0    -1  
$EndComp
$Comp
L power:GND #PWR0146
U 1 1 62564F96
P 6350 5200
F 0 "#PWR0146" H 6350 4950 50  0001 C CNN
F 1 "GND" H 6355 5027 50  0000 C CNN
F 2 "" H 6350 5200 50  0001 C CNN
F 3 "" H 6350 5200 50  0001 C CNN
	1    6350 5200
	1    0    0    -1  
$EndComp
$Comp
L LED:WS2813 D47
U 1 1 62564F9C
P 7350 4900
F 0 "D47" H 7694 4946 50  0000 L CNN
F 1 "WS2813" H 7694 4855 50  0000 L CNN
F 2 "pcb_2:WS2813E" H 7400 4600 50  0001 L TNN
F 3 "http://www.normandled.com/upload/201605/WS2813%20LED%20Datasheet.pdf" H 7450 4525 50  0001 L TNN
	1    7350 4900
	1    0    0    -1  
$EndComp
$Comp
L power:GND #PWR0147
U 1 1 62564FA2
P 7350 5200
F 0 "#PWR0147" H 7350 4950 50  0001 C CNN
F 1 "GND" H 7355 5027 50  0000 C CNN
F 2 "" H 7350 5200 50  0001 C CNN
F 3 "" H 7350 5200 50  0001 C CNN
	1    7350 5200
	1    0    0    -1  
$EndComp
$Comp
L LED:WS2813 D48
U 1 1 62564FA8
P 8400 4900
F 0 "D48" H 8744 4946 50  0000 L CNN
F 1 "WS2813" H 8744 4855 50  0000 L CNN
F 2 "pcb_2:WS2813E" H 8450 4600 50  0001 L TNN
F 3 "http://www.normandled.com/upload/201605/WS2813%20LED%20Datasheet.pdf" H 8500 4525 50  0001 L TNN
	1    8400 4900
	1    0    0    -1  
$EndComp
$Comp
L power:GND #PWR0148
U 1 1 62564FAE
P 8400 5200
F 0 "#PWR0148" H 8400 4950 50  0001 C CNN
F 1 "GND" H 8405 5027 50  0000 C CNN
F 2 "" H 8400 5200 50  0001 C CNN
F 3 "" H 8400 5200 50  0001 C CNN
	1    8400 5200
	1    0    0    -1  
$EndComp
$Comp
L LED:WS2813 D49
U 1 1 62564FB4
P 9450 4900
F 0 "D49" H 9794 4946 50  0000 L CNN
F 1 "WS2813" H 9794 4855 50  0000 L CNN
F 2 "pcb_2:WS2813E" H 9500 4600 50  0001 L TNN
F 3 "http://www.normandled.com/upload/201605/WS2813%20LED%20Datasheet.pdf" H 9550 4525 50  0001 L TNN
	1    9450 4900
	1    0    0    -1  
$EndComp
$Comp
L power:GND #PWR0149
U 1 1 62564FBA
P 9450 5200
F 0 "#PWR0149" H 9450 4950 50  0001 C CNN
F 1 "GND" H 9455 5027 50  0000 C CNN
F 2 "" H 9450 5200 50  0001 C CNN
F 3 "" H 9450 5200 50  0001 C CNN
	1    9450 5200
	1    0    0    -1  
$EndComp
$Comp
L LED:WS2813 D50
U 1 1 62564FC0
P 10500 4900
F 0 "D50" H 10844 4946 50  0000 L CNN
F 1 "WS2813" H 10844 4855 50  0000 L CNN
F 2 "pcb_2:WS2813E" H 10550 4600 50  0001 L TNN
F 3 "http://www.normandled.com/upload/201605/WS2813%20LED%20Datasheet.pdf" H 10600 4525 50  0001 L TNN
	1    10500 4900
	1    0    0    -1  
$EndComp
$Comp
L power:GND #PWR0150
U 1 1 62564FC6
P 10500 5200
F 0 "#PWR0150" H 10500 4950 50  0001 C CNN
F 1 "GND" H 10505 5027 50  0000 C CNN
F 2 "" H 10500 5200 50  0001 C CNN
F 3 "" H 10500 5200 50  0001 C CNN
	1    10500 5200
	1    0    0    -1  
$EndComp
$Comp
L LED:WS2813 D52
U 1 1 625691EE
P 2100 5900
F 0 "D52" H 2444 5946 50  0000 L CNN
F 1 "WS2813" H 2444 5855 50  0000 L CNN
F 2 "pcb_2:WS2813E" H 2150 5600 50  0001 L TNN
F 3 "http://www.normandled.com/upload/201605/WS2813%20LED%20Datasheet.pdf" H 2200 5525 50  0001 L TNN
	1    2100 5900
	1    0    0    -1  
$EndComp
$Comp
L LED:WS2813 D53
U 1 1 625691F4
P 3200 5900
F 0 "D53" H 3544 5946 50  0000 L CNN
F 1 "WS2813" H 3544 5855 50  0000 L CNN
F 2 "pcb_2:WS2813E" H 3250 5600 50  0001 L TNN
F 3 "http://www.normandled.com/upload/201605/WS2813%20LED%20Datasheet.pdf" H 3300 5525 50  0001 L TNN
	1    3200 5900
	1    0    0    -1  
$EndComp
$Comp
L LED:WS2813 D54
U 1 1 625691FA
P 4250 5900
F 0 "D54" H 4594 5946 50  0000 L CNN
F 1 "WS2813" H 4594 5855 50  0000 L CNN
F 2 "pcb_2:WS2813E" H 4300 5600 50  0001 L TNN
F 3 "http://www.normandled.com/upload/201605/WS2813%20LED%20Datasheet.pdf" H 4350 5525 50  0001 L TNN
	1    4250 5900
	1    0    0    -1  
$EndComp
$Comp
L power:GND #PWR0151
U 1 1 62569200
P 900 6200
F 0 "#PWR0151" H 900 5950 50  0001 C CNN
F 1 "GND" H 905 6027 50  0000 C CNN
F 2 "" H 900 6200 50  0001 C CNN
F 3 "" H 900 6200 50  0001 C CNN
	1    900  6200
	1    0    0    -1  
$EndComp
$Comp
L LED:WS2813 D51
U 1 1 62569206
P 900 5900
F 0 "D51" H 1244 5946 50  0000 L CNN
F 1 "WS2813" H 1244 5855 50  0000 L CNN
F 2 "pcb_2:WS2813E" H 950 5600 50  0001 L TNN
F 3 "http://www.normandled.com/upload/201605/WS2813%20LED%20Datasheet.pdf" H 1000 5525 50  0001 L TNN
	1    900  5900
	1    0    0    -1  
$EndComp
$Comp
L power:GND #PWR0152
U 1 1 6256920C
P 2100 6200
F 0 "#PWR0152" H 2100 5950 50  0001 C CNN
F 1 "GND" H 2105 6027 50  0000 C CNN
F 2 "" H 2100 6200 50  0001 C CNN
F 3 "" H 2100 6200 50  0001 C CNN
	1    2100 6200
	1    0    0    -1  
$EndComp
$Comp
L LED:WS2813 D55
U 1 1 62569212
P 5300 5900
F 0 "D55" H 5644 5946 50  0000 L CNN
F 1 "WS2813" H 5644 5855 50  0000 L CNN
F 2 "pcb_2:WS2813E" H 5350 5600 50  0001 L TNN
F 3 "http://www.normandled.com/upload/201605/WS2813%20LED%20Datasheet.pdf" H 5400 5525 50  0001 L TNN
	1    5300 5900
	1    0    0    -1  
$EndComp
$Comp
L power:GND #PWR0153
U 1 1 62569218
P 3200 6200
F 0 "#PWR0153" H 3200 5950 50  0001 C CNN
F 1 "GND" H 3205 6027 50  0000 C CNN
F 2 "" H 3200 6200 50  0001 C CNN
F 3 "" H 3200 6200 50  0001 C CNN
	1    3200 6200
	1    0    0    -1  
$EndComp
$Comp
L power:GND #PWR0154
U 1 1 6256921E
P 4250 6200
F 0 "#PWR0154" H 4250 5950 50  0001 C CNN
F 1 "GND" H 4255 6027 50  0000 C CNN
F 2 "" H 4250 6200 50  0001 C CNN
F 3 "" H 4250 6200 50  0001 C CNN
	1    4250 6200
	1    0    0    -1  
$EndComp
$Comp
L power:GND #PWR0155
U 1 1 62569224
P 5300 6200
F 0 "#PWR0155" H 5300 5950 50  0001 C CNN
F 1 "GND" H 5305 6027 50  0000 C CNN
F 2 "" H 5300 6200 50  0001 C CNN
F 3 "" H 5300 6200 50  0001 C CNN
	1    5300 6200
	1    0    0    -1  
$EndComp
$Comp
L LED:WS2813 D56
U 1 1 6256922A
P 6350 5900
F 0 "D56" H 6694 5946 50  0000 L CNN
F 1 "WS2813" H 6694 5855 50  0000 L CNN
F 2 "pcb_2:WS2813E" H 6400 5600 50  0001 L TNN
F 3 "http://www.normandled.com/upload/201605/WS2813%20LED%20Datasheet.pdf" H 6450 5525 50  0001 L TNN
	1    6350 5900
	1    0    0    -1  
$EndComp
$Comp
L power:GND #PWR0156
U 1 1 62569230
P 6350 6200
F 0 "#PWR0156" H 6350 5950 50  0001 C CNN
F 1 "GND" H 6355 6027 50  0000 C CNN
F 2 "" H 6350 6200 50  0001 C CNN
F 3 "" H 6350 6200 50  0001 C CNN
	1    6350 6200
	1    0    0    -1  
$EndComp
$Comp
L LED:WS2813 D57
U 1 1 62569236
P 7350 5900
F 0 "D57" H 7694 5946 50  0000 L CNN
F 1 "WS2813" H 7694 5855 50  0000 L CNN
F 2 "pcb_2:WS2813E" H 7400 5600 50  0001 L TNN
F 3 "http://www.normandled.com/upload/201605/WS2813%20LED%20Datasheet.pdf" H 7450 5525 50  0001 L TNN
	1    7350 5900
	1    0    0    -1  
$EndComp
$Comp
L power:GND #PWR0157
U 1 1 6256923C
P 7350 6200
F 0 "#PWR0157" H 7350 5950 50  0001 C CNN
F 1 "GND" H 7355 6027 50  0000 C CNN
F 2 "" H 7350 6200 50  0001 C CNN
F 3 "" H 7350 6200 50  0001 C CNN
	1    7350 6200
	1    0    0    -1  
$EndComp
$Comp
L LED:WS2813 D58
U 1 1 62569242
P 8400 5900
F 0 "D58" H 8744 5946 50  0000 L CNN
F 1 "WS2813" H 8744 5855 50  0000 L CNN
F 2 "pcb_2:WS2813E" H 8450 5600 50  0001 L TNN
F 3 "http://www.normandled.com/upload/201605/WS2813%20LED%20Datasheet.pdf" H 8500 5525 50  0001 L TNN
	1    8400 5900
	1    0    0    -1  
$EndComp
$Comp
L power:GND #PWR0158
U 1 1 62569248
P 8400 6200
F 0 "#PWR0158" H 8400 5950 50  0001 C CNN
F 1 "GND" H 8405 6027 50  0000 C CNN
F 2 "" H 8400 6200 50  0001 C CNN
F 3 "" H 8400 6200 50  0001 C CNN
	1    8400 6200
	1    0    0    -1  
$EndComp
$Comp
L LED:WS2813 D59
U 1 1 6256924E
P 9450 5900
F 0 "D59" H 9794 5946 50  0000 L CNN
F 1 "WS2813" H 9794 5855 50  0000 L CNN
F 2 "pcb_2:WS2813E" H 9500 5600 50  0001 L TNN
F 3 "http://www.normandled.com/upload/201605/WS2813%20LED%20Datasheet.pdf" H 9550 5525 50  0001 L TNN
	1    9450 5900
	1    0    0    -1  
$EndComp
$Comp
L power:GND #PWR0159
U 1 1 62569254
P 9450 6200
F 0 "#PWR0159" H 9450 5950 50  0001 C CNN
F 1 "GND" H 9455 6027 50  0000 C CNN
F 2 "" H 9450 6200 50  0001 C CNN
F 3 "" H 9450 6200 50  0001 C CNN
	1    9450 6200
	1    0    0    -1  
$EndComp
$Comp
L LED:WS2813 D60
U 1 1 6256925A
P 10500 5900
F 0 "D60" H 10844 5946 50  0000 L CNN
F 1 "WS2813" H 10844 5855 50  0000 L CNN
F 2 "pcb_2:WS2813E" H 10550 5600 50  0001 L TNN
F 3 "http://www.normandled.com/upload/201605/WS2813%20LED%20Datasheet.pdf" H 10600 5525 50  0001 L TNN
	1    10500 5900
	1    0    0    -1  
$EndComp
$Comp
L power:GND #PWR0160
U 1 1 62569260
P 10500 6200
F 0 "#PWR0160" H 10500 5950 50  0001 C CNN
F 1 "GND" H 10505 6027 50  0000 C CNN
F 2 "" H 10500 6200 50  0001 C CNN
F 3 "" H 10500 6200 50  0001 C CNN
	1    10500 6200
	1    0    0    -1  
$EndComp
$Comp
L LED:WS2813 D61
U 1 1 6256A6B2
P 900 6900
F 0 "D61" H 1244 6946 50  0000 L CNN
F 1 "WS2813" H 1244 6855 50  0000 L CNN
F 2 "pcb_2:WS2813E" H 950 6600 50  0001 L TNN
F 3 "http://www.normandled.com/upload/201605/WS2813%20LED%20Datasheet.pdf" H 1000 6525 50  0001 L TNN
	1    900  6900
	1    0    0    -1  
$EndComp
$Comp
L power:GND #PWR0161
U 1 1 625718A0
P 900 7200
F 0 "#PWR0161" H 900 6950 50  0001 C CNN
F 1 "GND" H 905 7027 50  0000 C CNN
F 2 "" H 900 7200 50  0001 C CNN
F 3 "" H 900 7200 50  0001 C CNN
	1    900  7200
	1    0    0    -1  
$EndComp
$Comp
L power:+5V #PWR0162
U 1 1 6261F27D
P 800 650
F 0 "#PWR0162" H 800 500 50  0001 C CNN
F 1 "+5V" H 815 823 50  0000 C CNN
F 2 "" H 800 650 50  0001 C CNN
F 3 "" H 800 650 50  0001 C CNN
	1    800  650 
	1    0    0    -1  
$EndComp
Wire Wire Line
	1200 950  1550 950 
Connection ~ 1550 950 
Wire Wire Line
	1550 950  1800 950 
Wire Wire Line
	2400 950  2750 950 
Wire Wire Line
	1550 950  1550 650 
$Comp
L power:+5V #PWR0163
U 1 1 6262A8F2
P 2000 650
F 0 "#PWR0163" H 2000 500 50  0001 C CNN
F 1 "+5V" H 2015 823 50  0000 C CNN
F 2 "" H 2000 650 50  0001 C CNN
F 3 "" H 2000 650 50  0001 C CNN
	1    2000 650 
	1    0    0    -1  
$EndComp
Wire Wire Line
	2900 1050 2400 1050
Wire Wire Line
	2400 650  2400 1050
NoConn ~ 600  1050
$Comp
L power:+5V #PWR0164
U 1 1 62637189
P 3100 650
F 0 "#PWR0164" H 3100 500 50  0001 C CNN
F 1 "+5V" H 3115 823 50  0000 C CNN
F 2 "" H 3100 650 50  0001 C CNN
F 3 "" H 3100 650 50  0001 C CNN
	1    3100 650 
	1    0    0    -1  
$EndComp
$Comp
L power:+5V #PWR0165
U 1 1 62638206
P 4150 650
F 0 "#PWR0165" H 4150 500 50  0001 C CNN
F 1 "+5V" H 4165 823 50  0000 C CNN
F 2 "" H 4150 650 50  0001 C CNN
F 3 "" H 4150 650 50  0001 C CNN
	1    4150 650 
	1    0    0    -1  
$EndComp
$Comp
L power:+5V #PWR0166
U 1 1 626385E1
P 5200 650
F 0 "#PWR0166" H 5200 500 50  0001 C CNN
F 1 "+5V" H 5215 823 50  0000 C CNN
F 2 "" H 5200 650 50  0001 C CNN
F 3 "" H 5200 650 50  0001 C CNN
	1    5200 650 
	1    0    0    -1  
$EndComp
Wire Wire Line
	3500 950  3950 950 
Wire Wire Line
	2750 950  2750 600 
Connection ~ 2750 950 
Wire Wire Line
	2750 950  2900 950 
Wire Wire Line
	3950 600  3950 1050
Wire Wire Line
	3200 650  3200 600 
Wire Wire Line
	2750 600  3950 600 
Wire Wire Line
	1550 650  2100 650 
$Comp
L power:+5V #PWR0167
U 1 1 62664080
P 900 650
F 0 "#PWR0167" H 900 500 50  0001 C CNN
F 1 "+5V" H 915 823 50  0000 C CNN
F 2 "" H 900 650 50  0001 C CNN
F 3 "" H 900 650 50  0001 C CNN
	1    900  650 
	1    0    0    -1  
$EndComp
$Comp
L power:+5V #PWR0168
U 1 1 626698E3
P 2100 650
F 0 "#PWR0168" H 2100 500 50  0001 C CNN
F 1 "+5V" H 2115 823 50  0000 C CNN
F 2 "" H 2100 650 50  0001 C CNN
F 3 "" H 2100 650 50  0001 C CNN
	1    2100 650 
	1    0    0    -1  
$EndComp
Connection ~ 2100 650 
Wire Wire Line
	2100 650  2400 650 
$Comp
L power:+5V #PWR0169
U 1 1 6266A6C1
P 3200 650
F 0 "#PWR0169" H 3200 500 50  0001 C CNN
F 1 "+5V" H 3215 823 50  0000 C CNN
F 2 "" H 3200 650 50  0001 C CNN
F 3 "" H 3200 650 50  0001 C CNN
	1    3200 650 
	1    0    0    -1  
$EndComp
Connection ~ 3200 650 
$Comp
L power:+5V #PWR0170
U 1 1 6266C421
P 4250 650
F 0 "#PWR0170" H 4250 500 50  0001 C CNN
F 1 "+5V" H 4265 823 50  0000 C CNN
F 2 "" H 4250 650 50  0001 C CNN
F 3 "" H 4250 650 50  0001 C CNN
	1    4250 650 
	1    0    0    -1  
$EndComp
$Comp
L power:+5V #PWR0171
U 1 1 6266D98E
P 5300 650
F 0 "#PWR0171" H 5300 500 50  0001 C CNN
F 1 "+5V" H 5315 823 50  0000 C CNN
F 2 "" H 5300 650 50  0001 C CNN
F 3 "" H 5300 650 50  0001 C CNN
	1    5300 650 
	1    0    0    -1  
$EndComp
$Comp
L power:+5V #PWR0172
U 1 1 62673965
P 6250 650
F 0 "#PWR0172" H 6250 500 50  0001 C CNN
F 1 "+5V" H 6265 823 50  0000 C CNN
F 2 "" H 6250 650 50  0001 C CNN
F 3 "" H 6250 650 50  0001 C CNN
	1    6250 650 
	1    0    0    -1  
$EndComp
$Comp
L power:+5V #PWR0173
U 1 1 62673DBD
P 6350 650
F 0 "#PWR0173" H 6350 500 50  0001 C CNN
F 1 "+5V" H 6365 823 50  0000 C CNN
F 2 "" H 6350 650 50  0001 C CNN
F 3 "" H 6350 650 50  0001 C CNN
	1    6350 650 
	1    0    0    -1  
$EndComp
$Comp
L power:+5V #PWR0174
U 1 1 6268A419
P 7250 650
F 0 "#PWR0174" H 7250 500 50  0001 C CNN
F 1 "+5V" H 7265 823 50  0000 C CNN
F 2 "" H 7250 650 50  0001 C CNN
F 3 "" H 7250 650 50  0001 C CNN
	1    7250 650 
	1    0    0    -1  
$EndComp
$Comp
L power:+5V #PWR0175
U 1 1 626904F1
P 7350 650
F 0 "#PWR0175" H 7350 500 50  0001 C CNN
F 1 "+5V" H 7365 823 50  0000 C CNN
F 2 "" H 7350 650 50  0001 C CNN
F 3 "" H 7350 650 50  0001 C CNN
	1    7350 650 
	1    0    0    -1  
$EndComp
$Comp
L power:+5V #PWR0176
U 1 1 62690FB0
P 8300 650
F 0 "#PWR0176" H 8300 500 50  0001 C CNN
F 1 "+5V" H 8315 823 50  0000 C CNN
F 2 "" H 8300 650 50  0001 C CNN
F 3 "" H 8300 650 50  0001 C CNN
	1    8300 650 
	1    0    0    -1  
$EndComp
$Comp
L power:+5V #PWR0177
U 1 1 626916BC
P 8400 650
F 0 "#PWR0177" H 8400 500 50  0001 C CNN
F 1 "+5V" H 8415 823 50  0000 C CNN
F 2 "" H 8400 650 50  0001 C CNN
F 3 "" H 8400 650 50  0001 C CNN
	1    8400 650 
	1    0    0    -1  
$EndComp
$Comp
L power:+5V #PWR0178
U 1 1 6269217B
P 9350 650
F 0 "#PWR0178" H 9350 500 50  0001 C CNN
F 1 "+5V" H 9365 823 50  0000 C CNN
F 2 "" H 9350 650 50  0001 C CNN
F 3 "" H 9350 650 50  0001 C CNN
	1    9350 650 
	1    0    0    -1  
$EndComp
$Comp
L power:+5V #PWR0179
U 1 1 6269293B
P 9450 650
F 0 "#PWR0179" H 9450 500 50  0001 C CNN
F 1 "+5V" H 9465 823 50  0000 C CNN
F 2 "" H 9450 650 50  0001 C CNN
F 3 "" H 9450 650 50  0001 C CNN
	1    9450 650 
	1    0    0    -1  
$EndComp
$Comp
L power:+5V #PWR0180
U 1 1 62692F5C
P 10400 650
F 0 "#PWR0180" H 10400 500 50  0001 C CNN
F 1 "+5V" H 10415 823 50  0000 C CNN
F 2 "" H 10400 650 50  0001 C CNN
F 3 "" H 10400 650 50  0001 C CNN
	1    10400 650 
	1    0    0    -1  
$EndComp
$Comp
L power:+5V #PWR0181
U 1 1 62693743
P 10500 650
F 0 "#PWR0181" H 10500 500 50  0001 C CNN
F 1 "+5V" H 10515 823 50  0000 C CNN
F 2 "" H 10500 650 50  0001 C CNN
F 3 "" H 10500 650 50  0001 C CNN
	1    10500 650 
	1    0    0    -1  
$EndComp
$Comp
L power:+5V #PWR0182
U 1 1 62693E15
P 800 1650
F 0 "#PWR0182" H 800 1500 50  0001 C CNN
F 1 "+5V" H 815 1823 50  0000 C CNN
F 2 "" H 800 1650 50  0001 C CNN
F 3 "" H 800 1650 50  0001 C CNN
	1    800  1650
	1    0    0    -1  
$EndComp
$Comp
L power:+5V #PWR0183
U 1 1 62696BF0
P 900 1650
F 0 "#PWR0183" H 900 1500 50  0001 C CNN
F 1 "+5V" H 915 1823 50  0000 C CNN
F 2 "" H 900 1650 50  0001 C CNN
F 3 "" H 900 1650 50  0001 C CNN
	1    900  1650
	1    0    0    -1  
$EndComp
$Comp
L MCU_Microchip_ATtiny:ATtiny841-SSU U1
U 1 1 626A4106
P 2750 6950
F 0 "U1" V 2083 6950 50  0000 C CNN
F 1 "ATtiny841-SSU" V 2174 6950 50  0000 C CNN
F 2 "Package_SO:SOIC-14_3.9x8.7mm_P1.27mm" H 2750 6950 50  0001 C CIN
F 3 "http://ww1.microchip.com/downloads/en/DeviceDoc/Atmel-8495-8-bit-AVR-Microcontrollers-ATtiny441-ATtiny841_Datasheet.pdf" H 2750 6950 50  0001 C CNN
	1    2750 6950
	0    1    1    0   
$EndComp
$Comp
L StepDown:StepDown PS?
U 1 1 62462907
P 4400 7050
AR Path="/62447D48/62462907" Ref="PS?"  Part="1" 
AR Path="/62462907" Ref="PS1"  Part="1" 
F 0 "PS1" H 4400 7417 50  0000 C CNN
F 1 "StepDown" H 4400 7326 50  0000 C CNN
F 2 "StepDown" H 4250 6800 50  0001 L CNN
F 3 "https://power.murata.com/pub/data/power/ncl/kdc_mee1.pdf" H 5450 6750 50  0001 L CNN
	1    4400 7050
	1    0    0    -1  
$EndComp
Wire Wire Line
	4550 5900 4550 6450
Wire Wire Line
	4550 6450 4800 6450
Wire Wire Line
	4800 6450 4800 6950
Wire Wire Line
	5000 7150 4800 7150
Wire Wire Line
	3950 6000 3950 6950
Wire Wire Line
	3950 6950 4000 6950
$Comp
L power:GND #PWR?
U 1 1 6247BBE4
P 5000 7150
F 0 "#PWR?" H 5000 6900 50  0001 C CNN
F 1 "GND" H 5005 6977 50  0000 C CNN
F 2 "" H 5000 7150 50  0001 C CNN
F 3 "" H 5000 7150 50  0001 C CNN
	1    5000 7150
	1    0    0    -1  
$EndComp
$Comp
L power:GND #PWR?
U 1 1 6247C1D0
P 4000 7150
F 0 "#PWR?" H 4000 6900 50  0001 C CNN
F 1 "GND" H 4005 6977 50  0000 C CNN
F 2 "" H 4000 7150 50  0001 C CNN
F 3 "" H 4000 7150 50  0001 C CNN
	1    4000 7150
	1    0    0    -1  
$EndComp
$EndSCHEMATC
